Exploring the BRFSS data
…
summary(brfss2013$genhlth)

## Excellent Very good      Good      Fair      Poor      NA's 
##     85482    159076    150555     66726     27951      1985

df1 <- brfss2013 %>% 
  filter(!is.na(educa), !is.na(genhlth)) %>%
  select(genhlth, educa)

df1 %>% 
  group_by(educa, genhlth) %>% 
  summarise(count=n()) %>%
  mutate(proportion=count/sum(count))

## Source: local data frame [30 x 4]
## Groups: educa [6]
## 
##                                         educa   genhlth count proportion
##                                        <fctr>    <fctr> <int>      <dbl>
## 1  Never attended school or only kindergarten Excellent    56 0.08536585
## 2  Never attended school or only kindergarten Very good    82 0.12500000
## 3  Never attended school or only kindergarten      Good   201 0.30640244
## 4  Never attended school or only kindergarten      Fair   199 0.30335366
## 5  Never attended school or only kindergarten      Poor   118 0.17987805
## 6             Grades 1 through 8 (Elementary) Excellent   900 0.06806322
## 7             Grades 1 through 8 (Elementary) Very good  1452 0.10980867
## 8             Grades 1 through 8 (Elementary)      Good  3972 0.30038569
## 9             Grades 1 through 8 (Elementary)      Fair  4383 0.33146790
## 10            Grades 1 through 8 (Elementary)      Poor  2516 0.19027452
## # ... with 20 more rows
…
